<?xml version="1.0" encoding="UTF-8" standalone="no"?>
<!DOCTYPE svg PUBLIC "-//W3C//DTD SVG 1.1//EN"
 "http://www.w3.org/Graphics/SVG/1.1/DTD/svg11.dtd">
<!-- Generated by graphviz version 2.40.1 (20161225.0304)
 -->
<!-- Title: Zeitgeist.Monitor Pages: 1 -->
<svg width="266pt" height="116pt"
 viewBox="0.00 0.00 266.00 116.00" xmlns="http://www.w3.org/2000/svg" xmlns:xlink="http://www.w3.org/1999/xlink">
<g id="graph0" class="graph" transform="scale(1 1) rotate(0) translate(4 112)">
<title>Zeitgeist.Monitor</title>
<polygon fill="#ffffff" stroke="transparent" points="-4,4 -4,-112 262,-112 262,4 -4,4"/>
<!-- Zeitgeist.Monitor -->
<g id="node1" class="node">
<title>Zeitgeist.Monitor</title>
<g id="a_node1"><a xlink:href="Zeitgeist.Monitor.html" xlink:title="Zeitgeist.Monitor">
<polygon fill="none" stroke="#000000" stroke-width="2" points="168,-36 55,-36 55,0 168,0 168,-36"/>
<text text-anchor="middle" x="111.5" y="-14.3" font-family="Times" font-size="14.00" fill="#000000">Zeitgeist.Monitor</text>
</a>
</g>
</g>
<!-- GLib.Object -->
<g id="node2" class="node">
<title>GLib.Object</title>
<polygon fill="none" stroke="#000000" stroke-width="2" points="85,-108 0,-108 0,-72 85,-72 85,-108"/>
<text text-anchor="middle" x="42.5" y="-86.3" font-family="Times" font-size="14.00" fill="#000000">GLib.Object</text>
</g>
<!-- GLib.Object&#45;&gt;Zeitgeist.Monitor -->
<g id="edge1" class="edge">
<title>GLib.Object&#45;&gt;Zeitgeist.Monitor</title>
<path fill="none" stroke="#000000" d="M67.0625,-64.3696C75.9107,-55.1366 85.7124,-44.9088 93.854,-36.4133"/>
<polygon fill="#000000" stroke="#000000" points="64.3037,-62.1898 59.9116,-71.8314 69.3577,-67.0331 64.3037,-62.1898"/>
</g>
<!-- Zeitgeist.RemoteMonitor -->
<g id="node3" class="node">
<title>Zeitgeist.RemoteMonitor</title>
<g id="a_node3"><a xlink:href="Zeitgeist.RemoteMonitor.html" xlink:title="Zeitgeist.RemoteMonitor">
<polygon fill="none" stroke="#000000" points="258,-108 103,-108 103,-72 258,-72 258,-108"/>
<text text-anchor="middle" x="180.5" y="-86.3" font-family="Times" font-size="14.00" fill="#000000">Zeitgeist.RemoteMonitor</text>
</a>
</g>
</g>
<!-- Zeitgeist.RemoteMonitor&#45;&gt;Zeitgeist.Monitor -->
<g id="edge2" class="edge">
<title>Zeitgeist.RemoteMonitor&#45;&gt;Zeitgeist.Monitor</title>
<path fill="none" stroke="#000000" d="M155.9375,-64.3696C147.0893,-55.1366 137.2876,-44.9088 129.146,-36.4133"/>
<polygon fill="#000000" stroke="#000000" points="153.6423,-67.0331 163.0884,-71.8314 158.6963,-62.1898 153.6423,-67.0331"/>
</g>
</g>
</svg>
