<?xml version="1.0" encoding="UTF-8" standalone="no"?>
<!DOCTYPE svg PUBLIC "-//W3C//DTD SVG 1.1//EN"
 "http://www.w3.org/Graphics/SVG/1.1/DTD/svg11.dtd">
<!-- Generated by graphviz version 2.40.1 (20161225.0304)
 -->
<!-- Title: Zeitgeist.DataSource Pages: 1 -->
<svg width="139pt" height="116pt"
 viewBox="0.00 0.00 139.00 116.00" xmlns="http://www.w3.org/2000/svg" xmlns:xlink="http://www.w3.org/1999/xlink">
<g id="graph0" class="graph" transform="scale(1 1) rotate(0) translate(4 112)">
<title>Zeitgeist.DataSource</title>
<polygon fill="#ffffff" stroke="transparent" points="-4,4 -4,-112 135,-112 135,4 -4,4"/>
<!-- Zeitgeist.DataSource -->
<g id="node1" class="node">
<title>Zeitgeist.DataSource</title>
<g id="a_node1"><a xlink:href="Zeitgeist.DataSource.html" xlink:title="Zeitgeist.DataSource">
<polygon fill="none" stroke="#000000" stroke-width="2" points="131,-36 0,-36 0,0 131,0 131,-36"/>
<text text-anchor="middle" x="65.5" y="-14.3" font-family="Times" font-size="14.00" fill="#000000">Zeitgeist.DataSource</text>
</a>
</g>
</g>
<!-- GLib.Object -->
<g id="node2" class="node">
<title>GLib.Object</title>
<polygon fill="none" stroke="#000000" stroke-width="2" points="108,-108 23,-108 23,-72 108,-72 108,-108"/>
<text text-anchor="middle" x="65.5" y="-86.3" font-family="Times" font-size="14.00" fill="#000000">GLib.Object</text>
</g>
<!-- GLib.Object&#45;&gt;Zeitgeist.DataSource -->
<g id="edge1" class="edge">
<title>GLib.Object&#45;&gt;Zeitgeist.DataSource</title>
<path fill="none" stroke="#000000" d="M65.5,-61.5726C65.5,-53.1084 65.5,-44.0593 65.5,-36.4133"/>
<polygon fill="#000000" stroke="#000000" points="62.0001,-61.8313 65.5,-71.8314 69.0001,-61.8314 62.0001,-61.8313"/>
</g>
</g>
</svg>
