<?xml version="1.0" encoding="UTF-8" standalone="no"?>
<!DOCTYPE svg PUBLIC "-//W3C//DTD SVG 1.1//EN"
 "http://www.w3.org/Graphics/SVG/1.1/DTD/svg11.dtd">
<!-- Generated by graphviz version 2.40.1 (20161225.0304)
 -->
<!-- Title: Zeitgeist.ResultSet Pages: 1 -->
<svg width="127pt" height="116pt"
 viewBox="0.00 0.00 127.00 116.00" xmlns="http://www.w3.org/2000/svg" xmlns:xlink="http://www.w3.org/1999/xlink">
<g id="graph0" class="graph" transform="scale(1 1) rotate(0) translate(4 112)">
<title>Zeitgeist.ResultSet</title>
<polygon fill="#ffffff" stroke="transparent" points="-4,4 -4,-112 123,-112 123,4 -4,4"/>
<!-- Zeitgeist.ResultSet -->
<g id="node1" class="node">
<title>Zeitgeist.ResultSet</title>
<g id="a_node1"><a xlink:href="Zeitgeist.ResultSet.html" xlink:title="Zeitgeist.ResultSet">
<polygon fill="none" stroke="#000000" points="119,-36 0,-36 0,0 119,0 119,-36"/>
<text text-anchor="middle" x="59.5" y="-14.3" font-family="Times" font-size="14.00" fill="#000000">Zeitgeist.ResultSet</text>
</a>
</g>
</g>
<!-- GLib.Object -->
<g id="node2" class="node">
<title>GLib.Object</title>
<polygon fill="none" stroke="#000000" stroke-width="2" points="102,-108 17,-108 17,-72 102,-72 102,-108"/>
<text text-anchor="middle" x="59.5" y="-86.3" font-family="Times" font-size="14.00" fill="#000000">GLib.Object</text>
</g>
<!-- GLib.Object&#45;&gt;Zeitgeist.ResultSet -->
<g id="edge1" class="edge">
<title>GLib.Object&#45;&gt;Zeitgeist.ResultSet</title>
<path fill="none" stroke="#000000" d="M59.5,-61.5726C59.5,-53.1084 59.5,-44.0593 59.5,-36.4133"/>
<polygon fill="#000000" stroke="#000000" points="56.0001,-61.8313 59.5,-71.8314 63.0001,-61.8314 56.0001,-61.8313"/>
</g>
</g>
</svg>
